…
### **q3** You should have found *at least* three outliers in q2 (but possibly many more!). Identify those outliers (figure out which countries they are).

``` r
## TASK: Identify the outliers from q2

ordered <-min_year_df %>% 
  filter(continent == "Asia") %>% # switch continents
  arrange(desc(gdpPercap))
ordered
```

    ## # A tibble: 33 × 6
    ##    country          continent  year lifeExp      pop gdpPercap
    ##    <fct>            <fct>     <int>   <dbl>    <int>     <dbl>
    ##  1 Kuwait           Asia       1952    55.6   160000   108382.
    ##  2 Bahrain          Asia       1952    50.9   120447     9867.
    ##  3 Saudi Arabia     Asia       1952    39.9  4005677     6460.
    ##  4 Lebanon          Asia       1952    55.9  1439529     4835.
    ##  5 Iraq             Asia       1952    45.3  5441766     4130.
    ##  6 Israel           Asia       1952    65.4  1620914     4087.
    ##  7 Japan            Asia       1952    63.0 86459025     3217.
    ##  8 Hong Kong, China Asia       1952    61.0  2125900     3054.
    ##  9 Iran             Asia       1952    44.9 17272000     3035.
    ## 10 Singapore        Asia       1952    60.4  1127000     2315.
    ## # ℹ 23 more rows
…
